<svg width="33" height="33" viewBox="0 0 33 33" fill="none" xmlns="http://www.w3.org/2000/svg">
<path d="M29.6506 16.0335C29.6506 8.67353 23.6772 2.7002 16.3172 2.7002C8.95722 2.7002 2.98389 8.67353 2.98389 16.0335C2.98389 22.4869 7.57055 27.8602 13.6506 29.1002V20.0335H10.9839V16.0335H13.6506V12.7002C13.6506 10.1269 15.7439 8.03353 18.3172 8.03353H21.6506V12.0335H18.9839C18.2506 12.0335 17.6506 12.6335 17.6506 13.3669V16.0335H21.6506V20.0335H17.6506V29.3002C24.3839 28.6335 29.6506 22.9535 29.6506 16.0335Z" fill="white"/>
</svg>
