<svg width="34" height="22" viewBox="0 0 34 22" fill="none" xmlns="http://www.w3.org/2000/svg">
<path fill-rule="evenodd" clip-rule="evenodd" d="M0 0.75C0 0.335786 0.335786 0 0.75 0H32.6039C33.0181 0 33.3539 0.335786 33.3539 0.75C33.3539 1.16421 33.0181 1.5 32.6039 1.5H0.75C0.335786 1.5 0 1.16421 0 0.75Z" fill="#203046"/>
<path fill-rule="evenodd" clip-rule="evenodd" d="M0 20.75C0 20.3358 0.335786 20 0.75 20H32.6039C33.0181 20 33.3539 20.3358 33.3539 20.75C33.3539 21.1642 33.0181 21.5 32.6039 21.5H0.75C0.335786 21.5 0 21.1642 0 20.75Z" fill="#203046"/>
<path fill-rule="evenodd" clip-rule="evenodd" d="M11.4977 10.75C11.4977 10.3358 11.8335 10 12.2477 10L32.6039 10C33.0181 10 33.3539 10.3358 33.3539 10.75C33.3539 11.1642 33.0181 11.5 32.6039 11.5L12.2477 11.5C11.8335 11.5 11.4977 11.1642 11.4977 10.75Z" fill="#203046"/>
</svg>
